…
#### 10.1.1 Prerequisites

The `tibble` package is already included in `tidyverse`. 

### 10.2 Creating tibbles

You can change a data frame into a tibble by using `as_tibble()`. 

```r
as_tibble(iris)
```

```
## # A tibble: 150 × 5
##    Sepal.Length Sepal.Width Petal.Length Petal.Width Species
##           <dbl>       <dbl>        <dbl>       <dbl>  <fctr>
## 1           5.1         3.5          1.4         0.2  setosa
## 2           4.9         3.0          1.4         0.2  setosa
## 3           4.7         3.2          1.3         0.2  setosa
## 4           4.6         3.1          1.5         0.2  setosa
## 5           5.0         3.6          1.4         0.2  setosa
## 6           5.4         3.9          1.7         0.4  setosa
## 7           4.6         3.4          1.4         0.3  setosa
## 8           5.0         3.4          1.5         0.2  setosa
## 9           4.4         2.9          1.4         0.2  setosa
## 10          4.9         3.1          1.5         0.1  setosa
## # ... with 140 more rows
```
…
Functions won't always work with tibbles because of the differences with `[` between data frames and tibbles. When working with data frames, `[` sometimes returns a data frame and sometimes returns a vector. with tibbles, `[` always returns a tibble.

### 10.5 Exercises

1. When you print a tibble, it says "A tibble" and gives the dimensions before printing the tibble. When you print a data frame, it lacks this header. You can also check to see if something is a tibble or data frame with `class()`. 

```r
print(df, n = 1)
```

```
## # A tibble: 5 × 2
##           x        y
##       <dbl>    <dbl>
## 1 0.4660152 1.324679
## # ... with 4 more rows
```
…
