…
There are some conflicts between dplyr and base R functions, but the base functions can still be used by specifying them from the stats package. For example, you can specify the base `filter()` by using `stats::filter()`. 

#### 5.1.2 nycflights13

This dataset is set up as a tibble, which will display differently than a standard data frame.

```r
flights
```

```
## # A tibble: 336,776 × 19
##     year month   day dep_time sched_dep_time dep_delay arr_time
##    <int> <int> <int>    <int>          <int>     <dbl>    <int>
## 1   2013     1     1      517            515         2      830
## 2   2013     1     1      533            529         4      850
## 3   2013     1     1      542            540         2      923
## 4   2013     1     1      544            545        -1     1004
## 5   2013     1     1      554            600        -6      812
## 6   2013     1     1      554            558        -4      740
## 7   2013     1     1      555            600        -5      913
## 8   2013     1     1      557            600        -3      709
## 9   2013     1     1      557            600        -3      838
## 10  2013     1     1      558            600        -2      753
## # ... with 336,766 more rows, and 12 more variables: sched_arr_time <int>,
## #   arr_delay <dbl>, carrier <chr>, flight <int>, tailnum <chr>,
## #   origin <chr>, dest <chr>, air_time <dbl>, distance <dbl>, hour <dbl>,
## #   minute <dbl>, time_hour <dttm>
```
…
Provided a data frame and instructions for modifying the data frame, these functions will create a new data frame as specified.

### 5.2 `filter()`

Use `filter()` to select all flights on January 1st.

```r
filter(flights, month == 1, day == 1)
```

```
## # A tibble: 842 × 19
##     year month   day dep_time sched_dep_time dep_delay arr_time
##    <int> <int> <int>    <int>          <int>     <dbl>    <int>
## 1   2013     1     1      517            515         2      830
## 2   2013     1     1      533            529         4      850
## 3   2013     1     1      542            540         2      923
## 4   2013     1     1      544            545        -1     1004
## 5   2013     1     1      554            600        -6      812
## 6   2013     1     1      554            558        -4      740
## 7   2013     1     1      555            600        -5      913
## 8   2013     1     1      557            600        -3      709
## 9   2013     1     1      557            600        -3      838
## 10  2013     1     1      558            600        -2      753
## # ... with 832 more rows, and 12 more variables: sched_arr_time <int>,
## #   arr_delay <dbl>, carrier <chr>, flight <int>, tailnum <chr>,
## #   origin <chr>, dest <chr>, air_time <dbl>, distance <dbl>, hour <dbl>,
## #   minute <dbl>, time_hour <dttm>
```

Using parentheses around a variable assignment will both save the result to a variable and show the result.

```r
(dec25 <- filter(flights, month == 12, day == 25))
```

```
## # A tibble: 719 × 19
##     year month   day dep_time sched_dep_time dep_delay arr_time
##    <int> <int> <int>    <int>          <int>     <dbl>    <int>
## 1   2013    12    25      456            500        -4      649
## 2   2013    12    25      524            515         9      805
## 3   2013    12    25      542            540         2      832
## 4   2013    12    25      546            550        -4     1022
## 5   2013    12    25      556            600        -4      730
## 6   2013    12    25      557            600        -3      743
## 7   2013    12    25      557            600        -3      818
## 8   2013    12    25      559            600        -1      855
## 9   2013    12    25      559            600        -1      849
## 10  2013    12    25      600            600         0      850
## # ... with 709 more rows, and 12 more variables: sched_arr_time <int>,
## #   arr_delay <dbl>, carrier <chr>, flight <int>, tailnum <chr>,
## #   origin <chr>, dest <chr>, air_time <dbl>, distance <dbl>, hour <dbl>,
## #   minute <dbl>, time_hour <dttm>
```
…
Arguments can be combined and only data that satisfies all requirements will be included in the output.

* `&`: and
* `|`: or
* `!`: not

Select all flights departing in November or December.

```r
filter(flights, month == 11 | month == 12)
```

```
## # A tibble: 55,403 × 19
##     year month   day dep_time sched_dep_time dep_delay arr_time
##    <int> <int> <int>    <int>          <int>     <dbl>    <int>
## 1   2013    11     1        5           2359         6      352
## 2   2013    11     1       35           2250       105      123
## 3   2013    11     1      455            500        -5      641
## 4   2013    11     1      539            545        -6      856
## 5   2013    11     1      542            545        -3      831
## 6   2013    11     1      549            600       -11      912
## 7   2013    11     1      550            600       -10      705
## 8   2013    11     1      554            600        -6      659
## 9   2013    11     1      554            600        -6      826
## 10  2013    11     1      554            600        -6      749
## # ... with 55,393 more rows, and 12 more variables: sched_arr_time <int>,
## #   arr_delay <dbl>, carrier <chr>, flight <int>, tailnum <chr>,
## #   origin <chr>, dest <chr>, air_time <dbl>, distance <dbl>, hour <dbl>,
## #   minute <dbl>, time_hour <dttm>
```

`x %in% y` can alternatively be used to select values of x in y.

```r
filter(flights, month %in% c(11, 12))
```

```
## # A tibble: 55,403 × 19
##     year month   day dep_time sched_dep_time dep_delay arr_time
##    <int> <int> <int>    <int>          <int>     <dbl>    <int>
## 1   2013    11     1        5           2359         6      352
## 2   2013    11     1       35           2250       105      123
## 3   2013    11     1      455            500        -5      641
## 4   2013    11     1      539            545        -6      856
## 5   2013    11     1      542            545        -3      831
## 6   2013    11     1      549            600       -11      912
## 7   2013    11     1      550            600       -10      705
## 8   2013    11     1      554            600        -6      659
## 9   2013    11     1      554            600        -6      826
## 10  2013    11     1      554            600        -6      749
## # ... with 55,393 more rows, and 12 more variables: sched_arr_time <int>,
## #   arr_delay <dbl>, carrier <chr>, flight <int>, tailnum <chr>,
## #   origin <chr>, dest <chr>, air_time <dbl>, distance <dbl>, hour <dbl>,
## #   minute <dbl>, time_hour <dttm>
```

There are often multiple ways to write these comparisons. For example, here are two ways to find flights that weren't delayed by more than two hours.

```r
filter(flights, !(arr_delay > 120 | dep_delay > 120))
```

```
## # A tibble: 316,050 × 19
##     year month   day dep_time sched_dep_time dep_delay arr_time
##    <int> <int> <int>    <int>          <int>     <dbl>    <int>
## 1   2013     1     1      517            515         2      830
## 2   2013     1     1      533            529         4      850
## 3   2013     1     1      542            540         2      923
## 4   2013     1     1      544            545        -1     1004
## 5   2013     1     1      554            600        -6      812
## 6   2013     1     1      554            558        -4      740
## 7   2013     1     1      555            600        -5      913
## 8   2013     1     1      557            600        -3      709
## 9   2013     1     1      557            600        -3      838
## 10  2013     1     1      558            600        -2      753
## # ... with 316,040 more rows, and 12 more variables: sched_arr_time <int>,
## #   arr_delay <dbl>, carrier <chr>, flight <int>, tailnum <chr>,
## #   origin <chr>, dest <chr>, air_time <dbl>, distance <dbl>, hour <dbl>,
## #   minute <dbl>, time_hour <dttm>
```

```r
filter(flights, arr_delay <= 120, dep_delay <= 120)
```

```
## # A tibble: 316,050 × 19
##     year month   day dep_time sched_dep_time dep_delay arr_time
##    <int> <int> <int>    <int>          <int>     <dbl>    <int>
## 1   2013     1     1      517            515         2      830
## 2   2013     1     1      533            529         4      850
## 3   2013     1     1      542            540         2      923
## 4   2013     1     1      544            545        -1     1004
## 5   2013     1     1      554            600        -6      812
## 6   2013     1     1      554            558        -4      740
## 7   2013     1     1      555            600        -5      913
## 8   2013     1     1      557            600        -3      709
## 9   2013     1     1      557            600        -3      838
## 10  2013     1     1      558            600        -2      753
## # ... with 316,040 more rows, and 12 more variables: sched_arr_time <int>,
## #   arr_delay <dbl>, carrier <chr>, flight <int>, tailnum <chr>,
## #   origin <chr>, dest <chr>, air_time <dbl>, distance <dbl>, hour <dbl>,
## #   minute <dbl>, time_hour <dttm>
```
…
#### 5.2.4 Exercises

1. 
  1. Flights with an arrival delay of two or more hours

```r
filter(flights, arr_delay >= 120)
```

```
## # A tibble: 10,200 × 19
##     year month   day dep_time sched_dep_time dep_delay arr_time
##    <int> <int> <int>    <int>          <int>     <dbl>    <int>
## 1   2013     1     1      811            630       101     1047
## 2   2013     1     1      848           1835       853     1001
## 3   2013     1     1      957            733       144     1056
## 4   2013     1     1     1114            900       134     1447
## 5   2013     1     1     1505           1310       115     1638
## 6   2013     1     1     1525           1340       105     1831
## 7   2013     1     1     1549           1445        64     1912
## 8   2013     1     1     1558           1359       119     1718
## 9   2013     1     1     1732           1630        62     2028
## 10  2013     1     1     1803           1620       103     2008
## # ... with 10,190 more rows, and 12 more variables: sched_arr_time <int>,
## #   arr_delay <dbl>, carrier <chr>, flight <int>, tailnum <chr>,
## #   origin <chr>, dest <chr>, air_time <dbl>, distance <dbl>, hour <dbl>,
## #   minute <dbl>, time_hour <dttm>
```

  2. Flights to Houston (IAH or HOU)

```r
filter(flights, dest %in% c("IAH", "HOU"))
```

```
## # A tibble: 9,313 × 19
##     year month   day dep_time sched_dep_time dep_delay arr_time
##    <int> <int> <int>    <int>          <int>     <dbl>    <int>
## 1   2013     1     1      517            515         2      830
## 2   2013     1     1      533            529         4      850
## 3   2013     1     1      623            627        -4      933
## 4   2013     1     1      728            732        -4     1041
## 5   2013     1     1      739            739         0     1104
## 6   2013     1     1      908            908         0     1228
## 7   2013     1     1     1028           1026         2     1350
## 8   2013     1     1     1044           1045        -1     1352
## 9   2013     1     1     1114            900       134     1447
## 10  2013     1     1     1205           1200         5     1503
## # ... with 9,303 more rows, and 12 more variables: sched_arr_time <int>,
## #   arr_delay <dbl>, carrier <chr>, flight <int>, tailnum <chr>,
## #   origin <chr>, dest <chr>, air_time <dbl>, distance <dbl>, hour <dbl>,
## #   minute <dbl>, time_hour <dttm>
```

  3. Flights operated by United, American, or Delta

```r
filter(flights, carrier %in% c("UA", "AA", "DL"))
```

```
## # A tibble: 139,504 × 19
##     year month   day dep_time sched_dep_time dep_delay arr_time
##    <int> <int> <int>    <int>          <int>     <dbl>    <int>
## 1   2013     1     1      517            515         2      830
## 2   2013     1     1      533            529         4      850
## 3   2013     1     1      542            540         2      923
## 4   2013     1     1      554            600        -6      812
## 5   2013     1     1      554            558        -4      740
## 6   2013     1     1      558            600        -2      753
## 7   2013     1     1      558            600        -2      924
## 8   2013     1     1      558            600        -2      923
## 9   2013     1     1      559            600        -1      941
## 10  2013     1     1      559            600        -1      854
## # ... with 139,494 more rows, and 12 more variables: sched_arr_time <int>,
## #   arr_delay <dbl>, carrier <chr>, flight <int>, tailnum <chr>,
## #   origin <chr>, dest <chr>, air_time <dbl>, distance <dbl>, hour <dbl>,
## #   minute <dbl>, time_hour <dttm>
```

  4. Flights that departed in July, August, or September

```r
filter(flights, month %in% c(7, 8, 9))
```

```
## # A tibble: 86,326 × 19
##     year month   day dep_time sched_dep_time dep_delay arr_time
##    <int> <int> <int>    <int>          <int>     <dbl>    <int>
## 1   2013     7     1        1           2029       212      236
## 2   2013     7     1        2           2359         3      344
## 3   2013     7     1       29           2245       104      151
## 4   2013     7     1       43           2130       193      322
## 5   2013     7     1       44           2150       174      300
## 6   2013     7     1       46           2051       235      304
## 7   2013     7     1       48           2001       287      308
## 8   2013     7     1       58           2155       183      335
## 9   2013     7     1      100           2146       194      327
## 10  2013     7     1      100           2245       135      337
## # ... with 86,316 more rows, and 12 more variables: sched_arr_time <int>,
## #   arr_delay <dbl>, carrier <chr>, flight <int>, tailnum <chr>,
## #   origin <chr>, dest <chr>, air_time <dbl>, distance <dbl>, hour <dbl>,
## #   minute <dbl>, time_hour <dttm>
```

  5. Flights that arrived over two hours late but didn't leave late

```r
filter(flights, dep_delay <= 0 & arr_delay > 120)
```

```
## # A tibble: 29 × 19
##     year month   day dep_time sched_dep_time dep_delay arr_time
##    <int> <int> <int>    <int>          <int>     <dbl>    <int>
## 1   2013     1    27     1419           1420        -1     1754
## 2   2013    10     7     1350           1350         0     1736
## 3   2013    10     7     1357           1359        -2     1858
## 4   2013    10    16      657            700        -3     1258
## 5   2013    11     1      658            700        -2     1329
## 6   2013     3    18     1844           1847        -3       39
## 7   2013     4    17     1635           1640        -5     2049
## 8   2013     4    18      558            600        -2     1149
## 9   2013     4    18      655            700        -5     1213
## 10  2013     5    22     1827           1830        -3     2217
## # ... with 19 more rows, and 12 more variables: sched_arr_time <int>,
## #   arr_delay <dbl>, carrier <chr>, flight <int>, tailnum <chr>,
## #   origin <chr>, dest <chr>, air_time <dbl>, distance <dbl>, hour <dbl>,
## #   minute <dbl>, time_hour <dttm>
```

  6. Flights delayed by at least an hour that made up over 30 minutes in flight

```r
filter(flights, dep_delay > 60 & arr_delay < 30)
```

```
## # A tibble: 181 × 19
##     year month   day dep_time sched_dep_time dep_delay arr_time
##    <int> <int> <int>    <int>          <int>     <dbl>    <int>
## 1   2013     1     3     1850           1745        65     2148
## 2   2013     1     3     1950           1845        65     2228
## 3   2013     1     6     1019            900        79     1558
## 4   2013     1     7     1543           1430        73     1758
## 5   2013     1    12     1706           1600        66     1949
## 6   2013     1    12     1953           1845        68     2154
## 7   2013     1    19     1456           1355        61     1636
## 8   2013     1    21     1531           1430        61     1843
## 9   2013     1    21     1648           1545        63     1939
## 10  2013    10    10     1938           1835        63     2158
## # ... with 171 more rows, and 12 more variables: sched_arr_time <int>,
## #   arr_delay <dbl>, carrier <chr>, flight <int>, tailnum <chr>,
## #   origin <chr>, dest <chr>, air_time <dbl>, distance <dbl>, hour <dbl>,
## #   minute <dbl>, time_hour <dttm>
```

  7. Flights that departed between midnight and 6 am (including these times)

```r
filter(flights, hour %in% c(24, 1, 2, 3, 4, 5, 6))
```

```
## # A tibble: 27,905 × 19
##     year month   day dep_time sched_dep_time dep_delay arr_time
##    <int> <int> <int>    <int>          <int>     <dbl>    <int>
## 1   2013     1     1      517            515         2      830
## 2   2013     1     1      533            529         4      850
## 3   2013     1     1      542            540         2      923
## 4   2013     1     1      544            545        -1     1004
## 5   2013     1     1      554            600        -6      812
## 6   2013     1     1      554            558        -4      740
## 7   2013     1     1      555            600        -5      913
## 8   2013     1     1      557            600        -3      709
## 9   2013     1     1      557            600        -3      838
## 10  2013     1     1      558            600        -2      753
## # ... with 27,895 more rows, and 12 more variables: sched_arr_time <int>,
## #   arr_delay <dbl>, carrier <chr>, flight <int>, tailnum <chr>,
## #   origin <chr>, dest <chr>, air_time <dbl>, distance <dbl>, hour <dbl>,
## #   minute <dbl>, time_hour <dttm>
```

2. `between()` specifies a range of values for a variable and can be used to simplify challenge 4 and 7.

```r
filter(flights, between(month, 7, 9))
```

```
## # A tibble: 86,326 × 19
##     year month   day dep_time sched_dep_time dep_delay arr_time
##    <int> <int> <int>    <int>          <int>     <dbl>    <int>
## 1   2013     7     1        1           2029       212      236
## 2   2013     7     1        2           2359         3      344
## 3   2013     7     1       29           2245       104      151
## 4   2013     7     1       43           2130       193      322
## 5   2013     7     1       44           2150       174      300
## 6   2013     7     1       46           2051       235      304
## 7   2013     7     1       48           2001       287      308
## 8   2013     7     1       58           2155       183      335
## 9   2013     7     1      100           2146       194      327
## 10  2013     7     1      100           2245       135      337
## # ... with 86,316 more rows, and 12 more variables: sched_arr_time <int>,
## #   arr_delay <dbl>, carrier <chr>, flight <int>, tailnum <chr>,
## #   origin <chr>, dest <chr>, air_time <dbl>, distance <dbl>, hour <dbl>,
## #   minute <dbl>, time_hour <dttm>
```
…
